4 Variation by Climate – Headwater streamflow variability is amplified by drought
…
mydat

# A tibble: 38 × 14
   basin     WaterYear nsites littlerange bigrange pe_range site_name totalyield
   <fct>         <dbl>  <int>       <dbl>    <dbl>    <dbl> <chr>          <dbl>
 1 Donner-B…      2019      4       0.332    0.583    -43.1 Donner B…       278.
 2 Donner-B…      2020      4       0.605    0.516     17.3 Donner B…       152.
 3 Donner-B…      2021      4       0.474    0.336     41.1 Donner B…       122.
 4 Donner-B…      2022      4       0.741    0.597     24.0 Donner B…       125.
 5 Flathead…      2018     18       1.82     0.783    133.  North Fo…       654.
 6 Flathead…      2019     19       2.47     0.668    269.  North Fo…       448.
 7 Flathead…      2020     19       3.49     1.11     214.  North Fo…       605.
 8 Flathead…      2021     17       2.76     0.756    265.  North Fo…       483.
 9 Flathead…      2022     16       2.76     1.11     149.  North Fo…       793.
10 Flathead…      2023      9       1.94     0.451    331.  North Fo…       372.
# ℹ 28 more rows
# ℹ 6 more variables: totalyield_z <dbl>, totalyield_sum <dbl>,
#   totalyield_sum_z <dbl>, tyz_perc <dbl>, tyz_sum_perc <dbl>, keep <chr>
…
